Get data_name data — get_data • envImport
…
  purrr::map(datas
              , \(x) get_data(x
                              , save_dir = out_dir
                              , get_new = FALSE
                              , aoi = envImport::aoi
                              , data_map = data_map
                              , sub_dir = "bio_all"
                              )
              )
#> save_file will be H:/temp/nige/RtmpMLLLcG/temp_libpath432815653495/envImport/examples/bio_all/galah.parquet
#> save_file will be H:/temp/nige/RtmpMLLLcG/temp_libpath432815653495/envImport/examples/bio_all/tern.parquet
#> [[1]]
#> # A tibble: 97,194 × 19
#>    data_name site  date         lat  long original_name             common nsx  
#>  * <chr>     <chr> <date>     <dbl> <dbl> <chr>                     <chr>  <lgl>
#>  1 galah     NA    1921-01-06 -34.2  141. Rhodanthe tietkensii      Tietk… NA   
#>  2 galah     NA    2019-10-24 -34.3  141. Manorina (Myzantha) mela… Noisy… NA   
#>  3 galah     NA    2022-09-05 -34.2  141. Limnodynastes dumerilii   Easte… NA   
#>  4 galah     NA    2015-05-02 -34.3  141. Tadorna (Casarca) tadorn… Austr… NA   
#>  5 galah     NA    2019-09-15 -34.2  141. Medicago sativa           Lucer… NA   
#>  6 galah     NA    2012-05-02 -34.1  141. CHIRONOMINAE              NA     NA   
#>  7 galah     NA    2017-03-01 -34.2  141. Cyprinus carpio           Europ… NA   
#>  8 galah     NA    1916-10-06 -34.2  141. Grevillea huegelii        Comb … NA   
#>  9 galah     NA    2012-01-03 -34.3  141. Platycercus (Platycercus… Crims… NA   
#> 10 galah     NA    2020-08-01 -34.1  141. Apis (Apis) mellifera     Honey… NA   
#> # ℹ 97,184 more rows
#> # ℹ 11 more variables: occ_derivation <chr>, quantity <dbl>, survey <chr>,
#> #   rel_metres <dbl>, method <chr>, obs <chr>, denatured <dbl>, kingdom <chr>,
#> #   occ <dbl>, year <dbl>, month <dbl>
#> 
#> [[2]]
#> # A tibble: 154 × 15
#>    data_name site     date         lat  long original_name lifeform cover height
#>    <chr>     <chr>    <date>     <dbl> <dbl> <chr>         <chr>    <dbl>  <dbl>
#>  1 tern      SAARIV0… 2015-08-12 -34.1  141. Acacia steno… NA       0.064  NA   
#>  2 tern      SAARIV0… 2015-08-12 -34.1  141. Atriplex rha… SD       0.019   0.4 
#>  3 tern      SAARIV0… 2015-08-12 -34.1  141. Chenopodium … SC       0.05    1   
#>  4 tern      SAARIV0… 2015-08-12 -34.1  141. Cirsium vulg… J        0.001   0.02
#>  5 tern      SAARIV0… 2015-08-12 -34.1  141. Disphyma cra… NA       0.017  NA   
#>  6 tern      SAARIV0… 2015-08-12 -34.1  141. Enchylaena t… NA       0.037  NA   
#>  7 tern      SAARIV0… 2015-08-12 -34.1  141. Eremophila b… S        0.017   3   
#>  8 tern      SAARIV0… 2015-08-12 -34.1  141. Eucalyptus c… NA       0.201  NA   
#>  9 tern      SAARIV0… 2015-08-12 -34.1  141. Eucalyptus l… NA       0.388  NA   
#> 10 tern      SAARIV0… 2015-08-12 -34.1  141. Melaleuca la… LB       0.015   4   
#> # ℹ 144 more rows
#> # ℹ 6 more variables: obs <chr>, kingdom <chr>, quad_metres <dbl>, occ <int>,
#> #   year <dbl>, month <dbl>
…
