Get data using galah::atlas_occurrences() — get_galah • envImport
…
    qry02 <- qry %>%
      galah::atlas_occurrences()

    rio::export(qry02
                , save_file
                )

  } else {

    rio::import(save_file
                , setclass = "tibble"
                )

  }
#> # A tibble: 857 × 8
#>    recordID       scientificName taxonConceptID decimalLatitude decimalLongitude
#>    <chr>          <chr>          <chr>                    <dbl>            <dbl>
#>  1 0005b418-2e35… Ardeotis aust… https://biodi…           -17.1             146.
#>  2 00480a8a-5c2d… Ardeotis aust… https://biodi…           -22.4             140.
#>  3 00775861-5709… Ardeotis aust… https://biodi…           -16.8             135.
#>  4 01ab281f-b1bf… Ardeotis aust… https://biodi…           -13.0             130.
#>  5 0256fd7c-cdba… Ardeotis aust… https://biodi…           -22.3             118.
#>  6 0269777d-36ec… Ardeotis aust… https://biodi…           -19.4             135.
#>  7 02a6b720-ac67… Ardeotis aust… https://biodi…           -16.4             125.
#>  8 02c2be0a-576a… Ardeotis aust… https://biodi…           -19.2             121.
#>  9 030fe766-7d3a… Ardeotis aust… https://biodi…           -23               140.
#> 10 031b37b3-9087… Ardeotis aust… https://biodi…           -17.5             141.
#> # ℹ 847 more rows
#> # ℹ 3 more variables: eventDate <dttm>, occurrenceStatus <chr>,
#> #   dataResourceName <chr>
…
  purrr::map(datas
              , \(x) get_data(x
                              , save_dir = out_dir
                              , get_new = FALSE
                              , aoi = envImport::aoi
                              , data_map = data_map
                              , sub_dir = "bio_all"
                              )
              )
#> save_file will be H:/temp/nige/RtmpCAczGZ/temp_libpath12c8243727f3/envImport/examples/bio_all/galah.parquet
#> save_file will be H:/temp/nige/RtmpCAczGZ/temp_libpath12c8243727f3/envImport/examples/bio_all/tern.parquet
#> save_file will be H:/temp/nige/RtmpCAczGZ/temp_libpath12c8243727f3/envImport/examples/bio_all/gbif.parquet
#> [[1]]
#> # A tibble: 97,194 × 19
#>    data_name site  date         lat  long original_name             common nsx  
#>  * <chr>     <chr> <date>     <dbl> <dbl> <chr>                     <chr>  <lgl>
#>  1 galah     NA    1921-01-06 -34.2  141. Rhodanthe tietkensii      Tietk… NA   
#>  2 galah     NA    2019-10-24 -34.3  141. Manorina (Myzantha) mela… Noisy… NA   
#>  3 galah     NA    2022-09-05 -34.2  141. Limnodynastes dumerilii   Easte… NA   
#>  4 galah     NA    2015-05-02 -34.3  141. Tadorna (Casarca) tadorn… Austr… NA   
#>  5 galah     NA    2019-09-15 -34.2  141. Medicago sativa           Lucer… NA   
#>  6 galah     NA    2012-05-02 -34.1  141. CHIRONOMINAE              NA     NA   
#>  7 galah     NA    2017-03-01 -34.2  141. Cyprinus carpio           Europ… NA   
#>  8 galah     NA    1916-10-06 -34.2  141. Grevillea huegelii        Comb … NA   
#>  9 galah     NA    2012-01-03 -34.3  141. Platycercus (Platycercus… Crims… NA   
#> 10 galah     NA    2020-08-01 -34.1  141. Apis (Apis) mellifera     Honey… NA   
#> # ℹ 97,184 more rows
#> # ℹ 11 more variables: occ_derivation <chr>, quantity <dbl>, survey <chr>,
#> #   rel_metres <dbl>, method <chr>, obs <chr>, denatured <dbl>, kingdom <chr>,
#> #   occ <dbl>, year <dbl>, month <dbl>
#> 
#> [[2]]
#> # A tibble: 154 × 15
#>    data_name site     date         lat  long original_name lifeform cover height
#>    <chr>     <chr>    <date>     <dbl> <dbl> <chr>         <chr>    <dbl>  <dbl>
#>  1 tern      SAARIV0… 2015-08-12 -34.1  141. Acacia steno… NA       0.064  NA   
#>  2 tern      SAARIV0… 2015-08-12 -34.1  141. Atriplex rha… SD       0.019   0.4 
#>  3 tern      SAARIV0… 2015-08-12 -34.1  141. Chenopodium … SC       0.05    1   
#>  4 tern      SAARIV0… 2015-08-12 -34.1  141. Cirsium vulg… J        0.001   0.02
#>  5 tern      SAARIV0… 2015-08-12 -34.1  141. Disphyma cra… NA       0.017  NA   
#>  6 tern      SAARIV0… 2015-08-12 -34.1  141. Enchylaena t… NA       0.037  NA   
#>  7 tern      SAARIV0… 2015-08-12 -34.1  141. Eremophila b… S        0.017   3   
#>  8 tern      SAARIV0… 2015-08-12 -34.1  141. Eucalyptus c… NA       0.201  NA   
#>  9 tern      SAARIV0… 2015-08-12 -34.1  141. Eucalyptus l… NA       0.388  NA   
#> 10 tern      SAARIV0… 2015-08-12 -34.1  141. Melaleuca la… LB       0.015   4   
#> # ℹ 144 more rows
#> # ℹ 6 more variables: obs <chr>, kingdom <chr>, quad_metres <dbl>, occ <int>,
#> #   year <dbl>, month <dbl>
#> 
#> [[3]]
#> # A tibble: 105,310 × 17
#>    data_name site      date         lat  long original_name nsx   occ_derivation
#>  * <chr>     <chr>     <date>     <dbl> <dbl> <chr>         <chr> <chr>         
#>  1 gbif      45008553… 2023-11-18 -34.2  141. Diporiphora … ""    PRESENT       
#>  2 gbif      41270095… 2023-05-14 -34.2  141. Grallina cya… ""    PRESENT       
#>  3 gbif      30680678… 2021-03-20 -34.3  141. Haliastur sp… ""    PRESENT       
#>  4 gbif      39254271… 2022-10-06 -34.1  141. Neobatrachus… ""    PRESENT       
#>  5 gbif      45077239… 2024-01-01 -34.3  141. Cacatua sang… ""    PRESENT       
#>  6 gbif      30392540… 2017-01-14 -34.2  141. Haliastur sp… ""    PRESENT       
#>  7 gbif      41210164… 2023-05-13 -34.2  141. Chroicocepha… ""    PRESENT       
#>  8 gbif      22830802… 2019-06-30 -34.3  141. Acacia steno… ""    PRESENT       
#>  9 gbif      30321748… 2021-01-26 -34.2  141. Anas gracili… ""    PRESENT       
#> 10 gbif      41118448… 2023-04-30 -34.3  141. Psephotus ha… ""    PRESENT       
#> # ℹ 105,300 more rows
#> # ℹ 9 more variables: quantity <chr>, rel_metres <dbl>, method <chr>,
#> #   obs <chr>, denatured <chr>, kingdom <chr>, occ <dbl>, year <dbl>,
#> #   month <dbl>
…
